{
    "path": "personal",
    "length": "1",
    "items": [
        {
            "title": "Basketball",
            "subTitle": "",
            "start": "",
            "end": "",
            "data": [
                {
                    "type": "text",
                    "value": "My favorite sport."
                },
                {
                    "type": "text",
                    "value": "Favorite team is the Lakers."
                },
                {
                    "type": "text",
                    "value": "Favorite current player is Stephen Curry"
                },
                {
                    "type": "text",
                    "value": "Favorite all time player is Steve Nash"
                },
                {
                    "type": "text",
                    "value": "Basketball is an affordable, simple, and infinitely complex game. It allows the player to grow in so many different ways. An underrated quality that comes from playing basketball is leadership. A well informed player can point out weaknesses and strengths for his or her team. They can motivate players, and get the best out of everyone. At that point, they are fine tuning and putting their leadership on display."
                },
                {
                    "type": "text",
                    "value": "I have been playing basketball since I was 10 years old. Basketball taught me what dedication to something can do. It taught me leadership in addition to the ability to recognize imperfections in myself."
                }
            ]
        }
    ]
}